<svg width="60" height="78" viewBox="0 0 60 78" fill="none" xmlns="http://www.w3.org/2000/svg">
<mask id="path-1-inside-1" fill="white">
<path fill-rule="evenodd" clip-rule="evenodd" d="M39.5077 1.42133C48.4733 4.16946 55.7668 11.3953 58.5412 20.2751C61.5299 29.8338 59.88 39.7561 54.0176 47.4976L30.0031 78L5.98852 47.4999C2.07129 42.3299 0 36.169 0 29.6842C0 20.2839 4.56634 11.3371 12.2159 5.75201C19.9223 0.128085 30.0185 -1.48996 39.5077 1.42133Z"/>
</mask>
<path fill-rule="evenodd" clip-rule="evenodd" d="M39.5077 1.42133C48.4733 4.16946 55.7668 11.3953 58.5412 20.2751C61.5299 29.8338 59.88 39.7561 54.0176 47.4976L30.0031 78L5.98852 47.4999C2.07129 42.3299 0 36.169 0 29.6842C0 20.2839 4.56634 11.3371 12.2159 5.75201C19.9223 0.128085 30.0185 -1.48996 39.5077 1.42133Z" fill="white"/>
<path d="M58.5412 20.2751L57.5867 20.5733L57.5868 20.5735L58.5412 20.2751ZM39.5077 1.42133L39.2144 2.37735L39.2146 2.37743L39.5077 1.42133ZM54.0176 47.4976L54.8033 48.1162L54.8092 48.1088L54.8148 48.1013L54.0176 47.4976ZM30.0031 78L29.2174 78.6186L30.0031 79.6165L30.7888 78.6186L30.0031 78ZM5.98852 47.4999L5.19148 48.1038L5.19709 48.1112L5.20283 48.1185L5.98852 47.4999ZM12.2159 5.75201L11.6264 4.94424L11.6263 4.94437L12.2159 5.75201ZM59.4957 19.9769C56.622 10.7792 49.079 3.30919 39.8007 0.465238L39.2146 2.37743C47.8677 5.02974 54.9116 12.0114 57.5867 20.5733L59.4957 19.9769ZM54.8148 48.1013C60.8794 40.0928 62.5772 29.8325 59.4956 19.9767L57.5868 20.5735C60.4825 29.8351 58.8806 39.4193 53.2204 46.8939L54.8148 48.1013ZM30.7888 78.6186L54.8033 48.1162L53.2319 46.879L29.2174 77.3814L30.7888 78.6186ZM5.20283 48.1185L29.2174 78.6186L30.7888 77.3814L6.77421 46.8812L5.20283 48.1185ZM-1 29.6842C-1 36.3871 1.14263 42.7601 5.19148 48.1038L6.78557 46.8959C2.99995 41.8997 1 35.9508 1 29.6842H-1ZM11.6263 4.94437C3.72108 10.7161 -1 19.9618 -1 29.6842H1C1 20.606 5.4116 11.9581 12.8056 6.55965L11.6263 4.94437ZM39.801 0.465313C30.0229 -2.53459 19.5975 -0.87289 11.6264 4.94424L12.8054 6.55978C20.247 1.12906 30.014 -0.445324 39.2144 2.37735L39.801 0.465313Z" fill="#1B1464" mask="url(#path-1-inside-1)"/>
<g clip-path="url(#clip0)">
<path d="M22.54 11.095C20.7073 12.3053 18.6348 27.2436 12.5246 30.0739C16.5775 42.1945 20.7073 17.7518 23.7624 14.7259C26.8175 11.7001 34.4055 12.2574 38.4321 14.4798C37.8677 10.3587 27.9442 7.52625 22.54 11.095Z" fill="#5ACC00"/>
<path d="M34.7603 55.2724C39.0269 54.9706 41.4816 38.4792 46.9808 36.0141C42.7036 34.7816 39.0375 44.9844 35.9824 48.4749C32.5674 52.3766 24.7241 51.0061 21.3179 48.287C21.3179 55.2724 26.206 55.8776 34.7603 55.2724Z" fill="#5ACC00"/>
<path d="M29.362 15.6496C29.6416 15.3726 29.6416 14.9236 29.362 14.6466C29.0824 14.3697 28.629 14.3697 28.3494 14.6466C28.0698 14.9236 28.0698 15.3726 28.3494 15.6496C28.629 15.9265 29.0824 15.9265 29.362 15.6496ZM27.5316 12.9344C27.8113 12.6575 27.8113 12.2084 27.5316 11.9316C27.252 11.6547 26.7987 11.6546 26.519 11.9316C26.2394 12.2085 26.2394 12.6575 26.519 12.9344C26.7987 13.2113 27.252 13.2113 27.5316 12.9344ZM29.66 28.4755C32.1883 28.3336 34.5678 27.2778 36.36 25.5028C38.3258 23.5558 39.3978 20.9669 39.3784 18.2132C39.3591 15.46 38.2499 12.8858 36.2555 10.9647C33.5348 8.34406 29.5987 7.41499 25.9837 8.53978C25.6064 8.65722 25.3967 9.05528 25.5152 9.42886C25.6338 9.80253 26.0356 10.0101 26.4129 9.89283C29.5253 8.92433 32.9141 9.72462 35.257 11.9813C36.9746 13.6357 37.9296 15.8523 37.9464 18.2229C37.9631 20.5941 37.04 22.8233 35.3473 24.4998C33.8041 26.0281 31.7555 26.9371 29.5787 27.0594C26.7495 27.2182 23.9496 28.3224 21.6945 30.1686L18.4431 32.8305C17.2533 33.8082 15.6198 33.6895 14.569 32.6488C13.5181 31.6078 13.4003 29.989 14.3856 28.8118L16.9393 25.752C18.8617 23.4486 19.997 20.6397 20.2227 17.6289C20.3815 15.5099 21.3116 13.5199 22.8419 12.0253C23.1006 11.7725 23.3765 11.5338 23.6617 11.3157C23.9748 11.0763 24.0325 10.631 23.7909 10.321C23.5493 10.0109 23.0995 9.95382 22.7866 10.193C22.4558 10.4461 22.1361 10.7227 21.8363 11.0155C20.0593 12.7512 18.979 15.0626 18.7946 17.524C18.591 20.24 17.5678 22.7728 15.8356 24.8484L13.2819 27.9082C12.4699 28.881 12.1597 30.1009 12.3347 31.2603L10.9897 32.5924C9.53253 31.6541 7.56458 31.8951 6.37918 33.1686C5.10165 34.5416 5.11721 36.6794 6.41421 38.035C6.87923 38.5217 7.47007 38.8675 8.12087 39.0331C8.28975 39.6788 8.63858 40.2641 9.13014 40.7258C9.82122 41.3745 10.7133 41.6994 11.606 41.6993C12.4813 41.6992 13.3573 41.3866 14.0438 40.7601C15.33 39.5867 15.5735 37.6377 14.6264 36.1946L15.9718 34.8621C17.1674 35.039 18.3755 34.7233 19.3554 33.9234L22.6069 31.2615C24.6284 29.6069 27.1332 28.6174 29.66 28.4755ZM13.5519 35.2534C13.1012 35.6979 13.0363 36.4014 13.3982 36.9267C14.0004 37.7993 13.861 38.9989 13.0737 39.7172C12.2388 40.4791 10.9394 40.47 10.1155 39.6968C9.81921 39.4184 9.6088 39.066 9.50723 38.6773C9.37701 38.1802 8.98426 37.7912 8.48201 37.6621C8.08984 37.5615 7.73451 37.3534 7.45413 37.0599C6.67293 36.2434 6.66329 34.9563 7.43227 34.1299C8.15781 33.3504 9.36909 33.212 10.2502 33.8086C10.7785 34.1656 11.4882 34.1029 11.9391 33.6581L12.8582 32.7479C13.0456 33.071 13.278 33.3755 13.5567 33.6517C13.8358 33.9281 14.1436 34.1583 14.4701 34.344L13.5519 35.2534ZM53.3298 26.5178C52.8648 26.031 52.2739 25.6853 51.6231 25.5197C51.4543 24.8739 51.1054 24.2886 50.6139 23.8269C49.2452 22.5422 47.0867 22.5272 45.7002 23.7926C44.414 24.966 44.1705 26.9149 45.1176 28.3581L43.7717 29.691C42.6014 29.518 41.3703 29.8253 40.3885 30.6292L37.137 33.2912C35.1156 34.946 32.6107 35.9356 30.0841 36.0775C28.566 36.1627 27.0617 36.5875 25.7339 37.3056C25.3869 37.4933 25.2592 37.9241 25.4487 38.2678C25.6383 38.6115 26.0732 38.7381 26.4202 38.5504C27.5628 37.9324 28.8577 37.5669 30.1652 37.4935C32.9944 37.3346 35.7944 36.2304 38.0494 34.3843L41.3008 31.7223C42.4896 30.7444 44.1299 30.8692 45.1749 31.9041C46.2184 32.9375 46.3457 34.5654 45.3584 35.741L42.8046 38.8008C40.8822 41.1042 39.7469 43.9132 39.5213 46.9239C39.3624 49.0429 38.4323 51.033 36.902 52.5276C35.2363 54.1546 33.0348 55.0552 30.7032 55.0636C30.6922 55.0636 30.6816 55.0636 30.6707 55.0636C28.3511 55.0635 26.1561 54.1792 24.4869 52.5715C21.0754 49.2855 20.8753 43.9554 24.0314 40.4369C24.294 40.144 24.2673 39.6959 23.9717 39.4358C23.6761 39.1756 23.2235 39.2021 22.9609 39.4948C19.295 43.5817 19.5269 49.7722 23.4886 53.5883C25.4268 55.4552 27.9759 56.4819 30.6706 56.4819H30.7084C33.4168 56.4721 35.9734 55.4265 37.9076 53.5375C39.6846 51.8018 40.7649 49.4904 40.9493 47.029C41.1529 44.313 42.1761 41.7802 43.9083 39.7046L46.462 36.6448C47.274 35.6719 47.5842 34.4521 47.4092 33.2927L48.7542 31.9605C50.2113 32.8988 52.1793 32.6579 53.3647 31.3843C54.6424 30.0111 54.6268 27.8734 53.3298 26.5178ZM52.3119 30.4229C51.5863 31.2024 50.375 31.3407 49.494 30.7442C48.9658 30.3874 48.256 30.4501 47.8051 30.8947L46.886 31.805C46.6986 31.4819 46.4662 31.1773 46.1875 30.9012C45.9084 30.6248 45.6006 30.3945 45.2741 30.2088L46.1923 29.2994C46.643 28.8549 46.7079 28.1515 46.346 27.6261C45.7438 26.7535 45.8832 25.5539 46.6705 24.8356C47.5053 24.0737 48.8047 24.0828 49.6287 24.856C49.925 25.1345 50.1354 25.4869 50.237 25.8755C50.3672 26.3727 50.7599 26.7617 51.2622 26.8907C51.6544 26.9913 52.0097 27.1994 52.2901 27.4929C53.0713 28.3095 53.0808 29.5965 52.3119 30.4229ZM31.0672 12.9344C31.3469 12.6575 31.3469 12.2084 31.0672 11.9316C30.7876 11.6546 30.3343 11.6546 30.0546 11.9316C29.775 12.2085 29.775 12.6575 30.0546 12.9344C30.3343 13.2113 30.7876 13.2113 31.0672 12.9344ZM33.225 52.6214C33.5046 52.3444 33.5046 51.8954 33.225 51.6186C32.9454 51.3416 32.492 51.3416 32.2124 51.6186C31.9327 51.8955 31.9327 52.3444 32.2124 52.6214C32.4921 52.8983 32.9454 52.8983 33.225 52.6214ZM31.3946 49.9063C31.6742 49.6294 31.6742 49.1803 31.3946 48.9034C31.115 48.6264 30.6616 48.6264 30.382 48.9034C30.1024 49.1803 30.1024 49.6294 30.382 49.9063C30.6617 50.1832 31.115 50.1832 31.3946 49.9063ZM29.6894 52.6214C29.969 52.3444 29.969 51.8954 29.6894 51.6186C29.4098 51.3416 28.9564 51.3416 28.6768 51.6186C28.3971 51.8955 28.3971 52.3444 28.6768 52.6214C28.9565 52.8983 29.4099 52.8983 29.6894 52.6214Z" fill="black"/>
</g>
<defs>
<clipPath id="clip0">
<rect width="48.8817" height="48.4138" fill="white" transform="translate(5.43164 8.06909)"/>
</clipPath>
</defs>
</svg>
