<svg width="60" height="78" viewBox="0 0 60 78" fill="none" xmlns="http://www.w3.org/2000/svg">
<mask id="path-1-inside-1" fill="white">
<path fill-rule="evenodd" clip-rule="evenodd" d="M39.5077 1.42133C48.4733 4.16946 55.7668 11.3953 58.5412 20.2751C61.5299 29.8338 59.88 39.7561 54.0176 47.4976L30.0031 78L5.98852 47.4999C2.07129 42.3299 0 36.169 0 29.6842C0 20.2839 4.56634 11.3371 12.2159 5.75201C19.9223 0.128085 30.0185 -1.48996 39.5077 1.42133Z"/>
</mask>
<path fill-rule="evenodd" clip-rule="evenodd" d="M39.5077 1.42133C48.4733 4.16946 55.7668 11.3953 58.5412 20.2751C61.5299 29.8338 59.88 39.7561 54.0176 47.4976L30.0031 78L5.98852 47.4999C2.07129 42.3299 0 36.169 0 29.6842C0 20.2839 4.56634 11.3371 12.2159 5.75201C19.9223 0.128085 30.0185 -1.48996 39.5077 1.42133Z" fill="white"/>
<path d="M58.5412 20.2751L57.5867 20.5733L57.5868 20.5735L58.5412 20.2751ZM39.5077 1.42133L39.2144 2.37735L39.2146 2.37743L39.5077 1.42133ZM54.0176 47.4976L54.8033 48.1162L54.8092 48.1088L54.8148 48.1013L54.0176 47.4976ZM30.0031 78L29.2174 78.6186L30.0031 79.6165L30.7888 78.6186L30.0031 78ZM5.98852 47.4999L5.19148 48.1038L5.19709 48.1112L5.20283 48.1185L5.98852 47.4999ZM12.2159 5.75201L11.6264 4.94424L11.6263 4.94437L12.2159 5.75201ZM59.4957 19.9769C56.622 10.7792 49.079 3.30919 39.8008 0.465238L39.2146 2.37743C47.8677 5.02974 54.9117 12.0114 57.5867 20.5733L59.4957 19.9769ZM54.8148 48.1013C60.8794 40.0928 62.5772 29.8325 59.4956 19.9767L57.5868 20.5735C60.4825 29.8351 58.8807 39.4193 53.2204 46.8939L54.8148 48.1013ZM30.7888 78.6186L54.8033 48.1162L53.2319 46.879L29.2174 77.3814L30.7888 78.6186ZM5.20283 48.1185L29.2174 78.6186L30.7888 77.3814L6.77422 46.8812L5.20283 48.1185ZM-1 29.6842C-1 36.3871 1.14263 42.7601 5.19148 48.1038L6.78557 46.8959C2.99995 41.8997 1 35.9508 1 29.6842H-1ZM11.6263 4.94437C3.72108 10.7161 -1 19.9618 -1 29.6842H1C1 20.606 5.4116 11.9581 12.8056 6.55965L11.6263 4.94437ZM39.801 0.465313C30.0229 -2.53459 19.5975 -0.87289 11.6264 4.94424L12.8054 6.55978C20.247 1.12906 30.014 -0.445324 39.2144 2.37735L39.801 0.465313Z" fill="#1B1464" mask="url(#path-1-inside-1)"/>
<g clip-path="url(#clip0)">
<path d="M26.8271 14.6974C23.6182 14.8467 21.0567 17.4773 21.0567 20.6925C21.0567 21.8693 21.3953 22.9739 21.9868 23.9C22.4494 24.6377 22.7129 25.5154 22.7129 26.4479C22.7129 29.1111 20.5331 31.2701 17.844 31.2701C15.155 31.2701 12.9891 28.5224 12.9891 25.8591C11.1876 28.8065 10.1509 32.3073 10.1509 36.0041C10.1509 46.7919 6.14982 34.6966 17.042 34.6966C27.9342 34.6966 43.4509 34.688 43.4509 23.9C43.4509 18.3236 47.2347 25.3932 43.4509 21.8341C43.3475 24.5942 41.0533 26.793 38.2412 26.793C35.3632 26.793 33.0301 24.4823 33.0301 21.6318C33.0301 20.5047 33.4035 19.4504 34.0225 18.6015C34.7171 17.6084 35.1326 16.3913 35.1326 15.0916C35.1326 12.0189 32.8481 9.4725 29.8752 9.01465C30.2153 9.57774 30.4013 10.2365 30.4013 10.9403C30.4013 12.9404 28.8172 14.582 26.8271 14.6974Z" fill="#5ACC00"/>
<path d="M29.8733 56.4829C24.3504 56.4829 19.158 54.3528 15.2526 50.4848C11.3473 46.6168 9.19647 41.4742 9.19647 36.004C9.19647 32.2321 10.2256 28.5549 12.1726 25.3693C12.3945 25.0063 12.8328 24.834 13.246 24.9482C13.6586 25.0623 13.9441 25.4347 13.9441 25.859C13.9441 27.9241 15.6479 30.3245 17.8444 30.3245C20.0026 30.3245 21.7585 28.5854 21.7585 26.4478C21.7585 25.715 21.5571 25.0065 21.176 24.399C20.4749 23.3012 20.1022 22.0173 20.1022 20.6925C20.1022 16.9775 23.0336 13.9305 26.7767 13.7531C28.2744 13.6636 29.4469 12.4291 29.4469 10.9404C29.4469 10.4213 29.3118 9.9233 29.0562 9.50006C28.8662 9.18537 28.8769 8.79031 29.0839 8.48621C29.2908 8.18201 29.6565 8.02401 30.0223 8.08036C31.6937 8.33785 33.2274 9.18064 34.3406 10.4536C35.4671 11.7417 36.0876 13.3889 36.0876 15.0918C36.0876 16.5428 35.6449 17.9426 34.8075 19.1401C34.8039 19.1452 34.8004 19.1502 34.7967 19.1552C34.2656 19.8834 33.985 20.7399 33.985 21.632C33.985 23.9565 35.8944 25.8476 38.2414 25.8476C40.5426 25.8476 42.4121 24.0692 42.497 21.7991C42.511 21.4277 42.7433 21.0989 43.0908 20.9585C43.4382 20.8184 43.8364 20.8926 44.1086 21.1486C46.1215 23.0419 47.7055 25.2741 48.8165 27.7829C49.9669 30.3804 50.5501 33.1464 50.5501 36.0041C50.5501 39.981 49.3978 43.8375 47.2177 47.1569C46.93 47.5945 46.3387 47.7186 45.8967 47.434C45.4548 47.1492 45.3296 46.5635 45.617 46.1257C47.5952 43.1139 48.6407 39.614 48.6407 36.0041C48.6407 31.4445 47.0125 27.1675 44.0213 23.7852C43.1469 26.1081 40.892 27.7387 38.2414 27.7387C34.8416 27.7387 32.0756 24.9992 32.0756 21.632C32.0756 20.3432 32.4792 19.107 33.2427 18.0563C33.8548 17.1783 34.1783 16.1534 34.1783 15.0918C34.1783 13.1233 33.0303 11.3529 31.3337 10.4733C31.3488 10.6278 31.3563 10.7836 31.3563 10.9404C31.3563 13.4311 29.3915 15.496 26.8831 15.6413C26.8794 15.6416 26.8758 15.6418 26.8722 15.642C24.1465 15.7688 22.0116 17.9873 22.0116 20.6925C22.0116 21.6588 22.2821 22.5933 22.7938 23.3945C23.367 24.3084 23.6678 25.362 23.6678 26.4478C23.6678 29.6283 21.0554 32.2157 17.8443 32.2157C16.2916 32.2157 14.8133 31.4916 13.6818 30.1767C13.2629 29.6899 12.9155 29.1459 12.6494 28.5707C11.6346 30.8962 11.1058 33.4253 11.1058 36.0041C11.106 46.2533 19.5249 54.5917 29.8733 54.5917C33.3839 54.5917 36.8066 53.6261 39.7717 51.7993C40.2194 51.5234 40.8082 51.6594 41.0866 52.1028C41.3651 52.5462 41.2279 53.1293 40.7803 53.4051C37.5123 55.4187 33.7406 56.4829 29.8733 56.4829Z" fill="#1B1464"/>
<path d="M27.2293 47.5867C27.0893 47.5867 26.9473 47.5562 26.813 47.4915C26.3386 47.2634 26.1409 46.6976 26.3712 46.2279L31.6245 35.5139C31.8548 35.0441 32.4263 34.8483 32.9003 35.0764C33.3746 35.3045 33.5724 35.8703 33.342 36.34L28.0888 47.054C27.9238 47.3907 27.5835 47.5867 27.2293 47.5867Z" fill="#1B1464"/>
<path d="M25.2143 39.7118C23.5295 39.7118 22.1587 38.3542 22.1587 36.6854C22.1587 35.0165 23.5294 33.6589 25.2143 33.6589C26.8992 33.6589 28.27 35.0165 28.27 36.6854C28.27 38.3542 26.8993 39.7118 25.2143 39.7118ZM25.2143 35.5501C24.5823 35.5501 24.0681 36.0594 24.0681 36.6854C24.0681 37.3113 24.5823 37.8206 25.2143 37.8206C25.8463 37.8206 26.3605 37.3113 26.3605 36.6854C26.3605 36.0594 25.8463 35.5501 25.2143 35.5501Z" fill="#1B1464"/>
<path d="M34.5325 48.9397C32.8477 48.9397 31.4769 47.5821 31.4769 45.9134C31.4769 44.2446 32.8476 42.887 34.5325 42.887C36.2173 42.887 37.5881 44.2445 37.5881 45.9134C37.5881 47.5821 36.2173 48.9397 34.5325 48.9397ZM34.5325 44.7782C33.9005 44.7782 33.3863 45.2875 33.3863 45.9135C33.3863 46.5394 33.9005 47.0487 34.5325 47.0487C35.1645 47.0487 35.6787 46.5394 35.6787 45.9135C35.6787 45.2874 35.1645 44.7782 34.5325 44.7782Z" fill="#1B1464"/>
<path d="M43.656 50.9219C43.4039 50.9219 43.1576 50.8208 42.9801 50.6449C42.8025 50.469 42.7012 50.225 42.7012 49.9763C42.7012 49.7267 42.8025 49.4837 42.9801 49.3079C43.1576 49.132 43.4039 49.0308 43.656 49.0308C43.9071 49.0308 44.1524 49.1319 44.3301 49.3079C44.5086 49.4837 44.6107 49.7277 44.6107 49.9763C44.6107 50.225 44.5086 50.469 44.3301 50.6449C44.1525 50.8208 43.9071 50.9219 43.656 50.9219Z" fill="#1B1464"/>
</g>
<defs>
<clipPath id="clip0">
<rect width="48.8817" height="48.4138" fill="white" transform="translate(5.43164 8.06909)"/>
</clipPath>
</defs>
</svg>
